上原ゼミR講座
…
tidyverseのread_csv()（CSVファイル）あるいはread_tsv()（TSVファイル）がおすすめ

.xlsxファイルの読み込みにはxlsxパッケージのread_excel()がおすすめ

このデータをダウンロードして、data_raw/に保存してください：https://www.dropbox.com/s/fdirlsnxlzy53qq/gapminder.csv?dl=0

データフレームの読み込み

read_csv()でデータを読み込む

library(tidyverse)
gapminder <- read_csv("data_raw/gapminder.csv")
gapminder

# A tibble: 1,704 × 6
   country     continent  year lifeExp      pop gdpPercap
   <chr>       <chr>     <dbl>   <dbl>    <dbl>     <dbl>
 1 Afghanistan Asia       1952    28.8  8425333      779.
 2 Afghanistan Asia       1957    30.3  9240934      821.
 3 Afghanistan Asia       1962    32.0 10267083      853.
 4 Afghanistan Asia       1967    34.0 11537966      836.
 5 Afghanistan Asia       1972    36.1 13079460      740.
 6 Afghanistan Asia       1977    38.4 14880372      786.
 7 Afghanistan Asia       1982    39.9 12881816      978.
 8 Afghanistan Asia       1987    40.8 13867957      852.
 9 Afghanistan Asia       1992    41.7 16317921      649.
10 Afghanistan Asia       1997    41.8 22227415      635.
# ℹ 1,694 more rows
…
列の順を並び変える

arrange(data, column)

arrange(gapminder, pop)

# A tibble: 1,704 × 6
   country               continent  year lifeExp   pop gdpPercap
   <chr>                 <chr>     <dbl>   <dbl> <dbl>     <dbl>
 1 Sao Tome and Principe Africa     1952    46.5 60011      880.
 2 Sao Tome and Principe Africa     1957    48.9 61325      861.
 3 Djibouti              Africa     1952    34.8 63149     2670.
 4 Sao Tome and Principe Africa     1962    51.9 65345     1072.
 5 Sao Tome and Principe Africa     1967    54.4 70787     1385.
 6 Djibouti              Africa     1957    37.3 71851     2865.
 7 Sao Tome and Principe Africa     1972    56.5 76595     1533.
 8 Sao Tome and Principe Africa     1977    58.6 86796     1738.
 9 Djibouti              Africa     1962    39.7 89898     3021.
10 Sao Tome and Principe Africa     1982    60.4 98593     1890.
# ℹ 1,694 more rows

列の順を並び変える

arrange(data, column1, column2)で複数の行によって並び変える

arrange(gapminder, year, country)

# A tibble: 1,704 × 6
   country     continent  year lifeExp      pop gdpPercap
   <chr>       <chr>     <dbl>   <dbl>    <dbl>     <dbl>
 1 Afghanistan Asia       1952    28.8  8425333      779.
 2 Albania     Europe     1952    55.2  1282697     1601.
 3 Algeria     Africa     1952    43.1  9279525     2449.
 4 Angola      Africa     1952    30.0  4232095     3521.
 5 Argentina   Americas   1952    62.5 17876956     5911.
 6 Australia   Oceania    1952    69.1  8691212    10040.
 7 Austria     Europe     1952    66.8  6927772     6137.
 8 Bahrain     Asia       1952    50.9   120447     9867.
 9 Bangladesh  Asia       1952    37.5 46886859      684.
10 Belgium     Europe     1952    68    8730405     8343.
# ℹ 1,694 more rows

列の順を並び変える

デフォルトで小さい順（あるいは、Aの方）から並ぶ

大きい方（あるいは、Zの方）から並べたい時はdesc()を使う

arrange(gapminder, year, desc(country))

# A tibble: 1,704 × 6
   country            continent  year lifeExp       pop gdpPercap
   <chr>              <chr>     <dbl>   <dbl>     <dbl>     <dbl>
 1 Zimbabwe           Africa     1952    48.5   3080907      407.
 2 Zambia             Africa     1952    42.0   2672000     1147.
 3 Yemen, Rep.        Asia       1952    32.5   4963829      782.
 4 West Bank and Gaza Asia       1952    43.2   1030585     1516.
 5 Vietnam            Asia       1952    40.4  26246839      605.
 6 Venezuela          Americas   1952    55.1   5439568     7690.
 7 Uruguay            Americas   1952    66.1   2252965     5717.
 8 United States      Americas   1952    68.4 157553000    13990.
 9 United Kingdom     Europe     1952    69.2  50430000     9980.
10 Uganda             Africa     1952    40.0   5824797      735.
# ℹ 1,694 more rows

行を抜き出す

select(data, column)で行を抜き出す

select(gapminder, country)

# A tibble: 1,704 × 1
   country    
   <chr>      
 1 Afghanistan
 2 Afghanistan
 3 Afghanistan
 4 Afghanistan
 5 Afghanistan
 6 Afghanistan
 7 Afghanistan
 8 Afghanistan
 9 Afghanistan
10 Afghanistan
# ℹ 1,694 more rows

行を抜き出す

select(data, column)で行を抜き出す

select(gapminder, year, country, pop)

# A tibble: 1,704 × 3
    year country          pop
   <dbl> <chr>          <dbl>
 1  1952 Afghanistan  8425333
 2  1957 Afghanistan  9240934
 3  1962 Afghanistan 10267083
 4  1967 Afghanistan 11537966
 5  1972 Afghanistan 13079460
 6  1977 Afghanistan 14880372
 7  1982 Afghanistan 12881816
 8  1987 Afghanistan 13867957
 9  1992 Afghanistan 16317921
10  1997 Afghanistan 22227415
# ℹ 1,694 more rows

行を抜き出す

数字でも指定できる

select(gapminder, 1, 2)

# A tibble: 1,704 × 2
   country     continent
   <chr>       <chr>    
 1 Afghanistan Asia     
 2 Afghanistan Asia     
 3 Afghanistan Asia     
 4 Afghanistan Asia     
 5 Afghanistan Asia     
 6 Afghanistan Asia     
 7 Afghanistan Asia     
 8 Afghanistan Asia     
 9 Afghanistan Asia     
10 Afghanistan Asia     
# ℹ 1,694 more rows

行を抜き出す

:で行の範囲を指定できる

select(gapminder, 1:4)

# A tibble: 1,704 × 4
   country     continent  year lifeExp
   <chr>       <chr>     <dbl>   <dbl>
 1 Afghanistan Asia       1952    28.8
 2 Afghanistan Asia       1957    30.3
 3 Afghanistan Asia       1962    32.0
 4 Afghanistan Asia       1967    34.0
 5 Afghanistan Asia       1972    36.1
 6 Afghanistan Asia       1977    38.4
 7 Afghanistan Asia       1982    39.9
 8 Afghanistan Asia       1987    40.8
 9 Afghanistan Asia       1992    41.7
10 Afghanistan Asia       1997    41.8
# ℹ 1,694 more rows

行を抜き出す

:で行の範囲を指定できる

select(gapminder, country:pop)

# A tibble: 1,704 × 5
   country     continent  year lifeExp      pop
   <chr>       <chr>     <dbl>   <dbl>    <dbl>
 1 Afghanistan Asia       1952    28.8  8425333
 2 Afghanistan Asia       1957    30.3  9240934
 3 Afghanistan Asia       1962    32.0 10267083
 4 Afghanistan Asia       1967    34.0 11537966
 5 Afghanistan Asia       1972    36.1 13079460
 6 Afghanistan Asia       1977    38.4 14880372
 7 Afghanistan Asia       1982    39.9 12881816
 8 Afghanistan Asia       1987    40.8 13867957
 9 Afghanistan Asia       1992    41.7 16317921
10 Afghanistan Asia       1997    41.8 22227415
# ℹ 1,694 more rows
…
列を絞る

filter()である条件に合っている列だけに絞る

filter(gapminder, year == max(year))

# A tibble: 142 × 6
   country     continent  year lifeExp       pop gdpPercap
   <chr>       <chr>     <dbl>   <dbl>     <dbl>     <dbl>
 1 Afghanistan Asia       2007    43.8  31889923      975.
 2 Albania     Europe     2007    76.4   3600523     5937.
 3 Algeria     Africa     2007    72.3  33333216     6223.
 4 Angola      Africa     2007    42.7  12420476     4797.
 5 Argentina   Americas   2007    75.3  40301927    12779.
 6 Australia   Oceania    2007    81.2  20434176    34435.
 7 Austria     Europe     2007    79.8   8199783    36126.
 8 Bahrain     Asia       2007    75.6    708573    29796.
 9 Bangladesh  Asia       2007    64.1 150448339     1391.
10 Belgium     Europe     2007    79.4  10392226    33693.
# ℹ 132 more rows
…
データを変換する

mutate()である行のデータを変換することができる。

例えば、人口を万人単位に変える：

mutate(gapminder, pop = pop/10000)

# A tibble: 1,704 × 6
   country     continent  year lifeExp   pop gdpPercap
   <chr>       <chr>     <dbl>   <dbl> <dbl>     <dbl>
 1 Afghanistan Asia       1952    28.8  843.      779.
 2 Afghanistan Asia       1957    30.3  924.      821.
 3 Afghanistan Asia       1962    32.0 1027.      853.
 4 Afghanistan Asia       1967    34.0 1154.      836.
 5 Afghanistan Asia       1972    36.1 1308.      740.
 6 Afghanistan Asia       1977    38.4 1488.      786.
 7 Afghanistan Asia       1982    39.9 1288.      978.
 8 Afghanistan Asia       1987    40.8 1387.      852.
 9 Afghanistan Asia       1992    41.7 1632.      649.
10 Afghanistan Asia       1997    41.8 2223.      635.
# ℹ 1,694 more rows

データを変換する

既にある行の名前を使えばその行は上書きされる。新しい名前を使ったら、新しい行が加えられる：

mutate(gapminder, pop_man = pop/10000)

# A tibble: 1,704 × 7
   country     continent  year lifeExp      pop gdpPercap pop_man
   <chr>       <chr>     <dbl>   <dbl>    <dbl>     <dbl>   <dbl>
 1 Afghanistan Asia       1952    28.8  8425333      779.    843.
 2 Afghanistan Asia       1957    30.3  9240934      821.    924.
 3 Afghanistan Asia       1962    32.0 10267083      853.   1027.
 4 Afghanistan Asia       1967    34.0 11537966      836.   1154.
 5 Afghanistan Asia       1972    36.1 13079460      740.   1308.
 6 Afghanistan Asia       1977    38.4 14880372      786.   1488.
 7 Afghanistan Asia       1982    39.9 12881816      978.   1288.
 8 Afghanistan Asia       1987    40.8 13867957      852.   1387.
 9 Afghanistan Asia       1992    41.7 16317921      649.   1632.
10 Afghanistan Asia       1997    41.8 22227415      635.   2223.
# ℹ 1,694 more rows
…
パイプについて

先の作業はパイプを使うとこのようにできる：

filter(gapminder, continent == "Asia") %>%
  select(country, year, pop)

# A tibble: 396 × 3
   country      year      pop
   <chr>       <dbl>    <dbl>
 1 Afghanistan  1952  8425333
 2 Afghanistan  1957  9240934
 3 Afghanistan  1962 10267083
 4 Afghanistan  1967 11537966
 5 Afghanistan  1972 13079460
 6 Afghanistan  1977 14880372
 7 Afghanistan  1982 12881816
 8 Afghanistan  1987 13867957
 9 Afghanistan  1992 16317921
10 Afghanistan  1997 22227415
# ℹ 386 more rows

パイプについて

複数の処理があると便利なことが分かる：

filter(gapminder, continent == "Asia") %>%
  select(country, year, pop) %>%
  arrange(pop)

# A tibble: 396 × 3
   country  year    pop
   <chr>   <dbl>  <dbl>
 1 Bahrain  1952 120447
 2 Bahrain  1957 138655
 3 Kuwait   1952 160000
 4 Bahrain  1962 171863
 5 Bahrain  1967 202182
 6 Kuwait   1957 212846
 7 Bahrain  1972 230800
 8 Bahrain  1977 297410
 9 Kuwait   1962 358266
10 Bahrain  1982 377967
# ℹ 386 more rows

パイプについて

あるいは

gapminder %>%  
  filter(continent == "Asia") %>%
  select(country, year, pop) %>%
  arrange(pop)

# A tibble: 396 × 3
   country  year    pop
   <chr>   <dbl>  <dbl>
 1 Bahrain  1952 120447
 2 Bahrain  1957 138655
 3 Kuwait   1952 160000
 4 Bahrain  1962 171863
 5 Bahrain  1967 202182
 6 Kuwait   1957 212846
 7 Bahrain  1972 230800
 8 Bahrain  1977 297410
 9 Kuwait   1962 358266
10 Bahrain  1982 377967
# ℹ 386 more rows
…
しかし、全体の平均だけを計算してもあまり意味はない。

それよりも、何か毎にデータの集計を行いたい方が多い。

グループ化

何か毎に処理を施すにはgroup_by()関数を使う。

例えば、国ごと。まずはデータのグループを指定する：

gapminder %>%
  group_by(country)

# A tibble: 1,704 × 6
# Groups:   country [142]
   country     continent  year lifeExp      pop gdpPercap
   <chr>       <chr>     <dbl>   <dbl>    <dbl>     <dbl>
 1 Afghanistan Asia       1952    28.8  8425333      779.
 2 Afghanistan Asia       1957    30.3  9240934      821.
 3 Afghanistan Asia       1962    32.0 10267083      853.
 4 Afghanistan Asia       1967    34.0 11537966      836.
 5 Afghanistan Asia       1972    36.1 13079460      740.
 6 Afghanistan Asia       1977    38.4 14880372      786.
 7 Afghanistan Asia       1982    39.9 12881816      978.
 8 Afghanistan Asia       1987    40.8 13867957      852.
 9 Afghanistan Asia       1992    41.7 16317921      649.
10 Afghanistan Asia       1997    41.8 22227415      635.
# ℹ 1,694 more rows

グループ化

次に、集計する：

gapminder %>%
  group_by(country) %>%
  summarize(mean_pop = mean(pop))

# A tibble: 142 × 2
   country      mean_pop
   <chr>           <dbl>
 1 Afghanistan 15823715.
 2 Albania      2580249.
 3 Algeria     19875406.
 4 Angola       7309390.
 5 Argentina   28602240.
 6 Australia   14649312.
 7 Austria      7583298.
 8 Bahrain       373913.
 9 Bangladesh  90755395.
10 Belgium      9725119.
# ℹ 132 more rows

グループ化

グループ毎の計算が終わったら、ungroup()でグループの解除をする必要がある場合がある。

gapminder %>%
  select(country, pop) %>%
  group_by(country) %>%
  mutate(mean_pop_country = mean(pop)) %>%
  ungroup() %>%
  mutate(mean_pop_total = mean(pop))

# A tibble: 1,704 × 4
  country          pop mean_pop_country mean_pop_total
  <chr>          <dbl>            <dbl>          <dbl>
1 Afghanistan  8425333        15823715.      29601212.
2 Afghanistan  9240934        15823715.      29601212.
3 Afghanistan 10267083        15823715.      29601212.
4 Afghanistan 11537966        15823715.      29601212.
5 Afghanistan 13079460        15823715.      29601212.
6 Afghanistan 14880372        15823715.      29601212.
# ℹ 1,698 more rows
…
